…
sim_results_df = 
  expand_grid(
    mu = 0,
    iter = 1:5000
  ) |> 
  mutate(estimate_df = map(mu, ~ sim_t(mu = .x))) |> 
  unnest(estimate_df)

sim_results_df
```

    ## # A tibble: 5,000 × 10
    ##       mu  iter estimate statistic p.value parameter conf.low conf.high method   
    ##    <dbl> <int>    <dbl>     <dbl>   <dbl>     <dbl>    <dbl>     <dbl> <chr>    
    ##  1     0     1  -0.236    -0.214    0.832        29   -2.49       2.02 One Samp…
    ##  2     0     2  -0.267    -0.324    0.749        29   -1.95       1.42 One Samp…
    ##  3     0     3  -0.552    -0.631    0.533        29   -2.34       1.24 One Samp…
    ##  4     0     4  -0.485    -0.508    0.615        29   -2.44       1.47 One Samp…
    ##  5     0     5  -0.156    -0.183    0.856        29   -1.90       1.59 One Samp…
    ##  6     0     6  -0.352    -0.381    0.706        29   -2.24       1.53 One Samp…
    ##  7     0     7  -0.0912   -0.0737   0.942        29   -2.62       2.44 One Samp…
    ##  8     0     8  -0.380    -0.471    0.641        29   -2.03       1.27 One Samp…
    ##  9     0     9   1.29      1.38     0.179        29   -0.626      3.21 One Samp…
    ## 10     0    10   0.0360    0.0462   0.963        29   -1.56       1.63 One Samp…
    ## # ℹ 4,990 more rows
    ## # ℹ 1 more variable: alternative <chr>
…
